Modeling of the Diabetes Health Indicators Set
…
         Smoker = as.factor(Smoker),
         CholCheck = as.factor(CholCheck),
         PhysActivity = as.factor(PhysActivity),
         HeartDiseaseorAttack = as.factor(HeartDiseaseorAttack),
         Stroke = as.factor(Stroke),
         HighBP = as.factor(HighBP),
         HighChol = as.factor(HighChol),
         Fruits = as.factor(Fruits),
         Veggies = as.factor(Veggies),
         GenHlth = factor(GenHlth, ordered = TRUE, levels = 
                            c("Excellent", "Very_Good", "Good", 
                               "Fair", "Poor")))
diabetes1

# A tibble: 253,680 × 22
   Diabetes_binary      HighBP HighChol CholCheck   BMI Smoker Stroke
   <fct>                <fct>  <fct>    <fct>     <dbl> <fct>  <fct> 
 1 Non_Diabetic         Yes    Yes      Yes          40 Yes    No    
 2 Non_Diabetic         No     No       No           25 Yes    No    
 3 Non_Diabetic         Yes    Yes      Yes          28 No     No    
 4 Non_Diabetic         Yes    No       Yes          27 No     No    
 5 Non_Diabetic         Yes    Yes      Yes          24 No     No    
 6 Non_Diabetic         Yes    Yes      Yes          25 Yes    No    
 7 Non_Diabetic         Yes    No       Yes          30 Yes    No    
 8 Non_Diabetic         Yes    Yes      Yes          25 Yes    No    
 9 Prediabetic_Diabetic Yes    Yes      Yes          30 Yes    No    
10 Non_Diabetic         No     No       Yes          24 No     No    
# ℹ 253,670 more rows
# ℹ 15 more variables: HeartDiseaseorAttack <fct>, PhysActivity <fct>,
#   Fruits <fct>, Veggies <fct>, HvyAlcoholConsump <fct>, AnyHealthcare <fct>,
#   NoDocbcCost <fct>, GenHlth <ord>, MentHlth <dbl>, PhysHlth <dbl>,
#   DiffWalk <fct>, Sex <fct>, Age <ord>, Education <ord>, Income <ord>
…
Data will be split 70/30 for training and testing. Model 1 data includes all variables, so the imported data above will be used. The createPartition() function from caret is used as it tries to maintain the class distribution (for the Diabetes_binary variable) for both sets.

#Set seed for reproducibility
set.seed(100)
#partition data
trainIndex <- createDataPartition(diabetes1$Diabetes_binary, 
                                  p = 0.7, 
                                  list = FALSE)
#create training set
diabetesTrain1 <- diabetes1[trainIndex, ]
#create test set
diabetesTest1 <- diabetes1[-trainIndex, ]
diabetesTrain1

# A tibble: 177,577 × 22
   Diabetes_binary      HighBP HighChol CholCheck   BMI Smoker Stroke
   <fct>                <fct>  <fct>    <fct>     <dbl> <fct>  <fct> 
 1 Non_Diabetic         Yes    Yes      Yes          40 Yes    No    
 2 Non_Diabetic         No     No       No           25 Yes    No    
 3 Non_Diabetic         Yes    No       Yes          27 No     No    
 4 Non_Diabetic         Yes    Yes      Yes          24 No     No    
 5 Non_Diabetic         Yes    Yes      Yes          25 Yes    No    
 6 Non_Diabetic         Yes    No       Yes          30 Yes    No    
 7 Non_Diabetic         Yes    Yes      Yes          25 Yes    No    
 8 Prediabetic_Diabetic Yes    Yes      Yes          30 Yes    No    
 9 Prediabetic_Diabetic No     No       Yes          25 Yes    No    
10 Non_Diabetic         Yes    Yes      Yes          34 Yes    No    
# ℹ 177,567 more rows
# ℹ 15 more variables: HeartDiseaseorAttack <fct>, PhysActivity <fct>,
#   Fruits <fct>, Veggies <fct>, HvyAlcoholConsump <fct>, AnyHealthcare <fct>,
#   NoDocbcCost <fct>, GenHlth <ord>, MentHlth <dbl>, PhysHlth <dbl>,
#   DiffWalk <fct>, Sex <fct>, Age <ord>, Education <ord>, Income <ord>

diabetesTest1

# A tibble: 76,103 × 22
   Diabetes_binary      HighBP HighChol CholCheck   BMI Smoker Stroke
   <fct>                <fct>  <fct>    <fct>     <dbl> <fct>  <fct> 
 1 Non_Diabetic         Yes    Yes      Yes          28 No     No    
 2 Non_Diabetic         No     No       Yes          24 No     No    
 3 Non_Diabetic         No     No       Yes          26 Yes    No    
 4 Non_Diabetic         No     Yes      Yes          33 Yes    Yes   
 5 Non_Diabetic         Yes    No       Yes          33 No     No    
 6 Non_Diabetic         No     No       No           23 No     No    
 7 Non_Diabetic         Yes    Yes      Yes          28 Yes    No    
 8 Prediabetic_Diabetic Yes    Yes      Yes          37 Yes    Yes   
 9 Prediabetic_Diabetic Yes    Yes      Yes          28 Yes    No    
10 Non_Diabetic         Yes    No       Yes          26 No     No    
# ℹ 76,093 more rows
# ℹ 15 more variables: HeartDiseaseorAttack <fct>, PhysActivity <fct>,
#   Fruits <fct>, Veggies <fct>, HvyAlcoholConsump <fct>, AnyHealthcare <fct>,
#   NoDocbcCost <fct>, GenHlth <ord>, MentHlth <dbl>, PhysHlth <dbl>,
#   DiffWalk <fct>, Sex <fct>, Age <ord>, Education <ord>, Income <ord>

Model 2

For model 2, we can use the training and test sets above with the appropriate variable removed.

diabetesTrain2 <- diabetesTrain1 |>
  select(-CholCheck,-Smoker, -Fruits, -Veggies, -AnyHealthcare, -NoDocbcCost,
         -Sex, -Education)
diabetesTest2 <- diabetesTest1 |>
  select(-CholCheck,-Smoker, -Fruits, -Veggies, -AnyHealthcare, -NoDocbcCost,
         -Sex, -Education)
diabetesTrain2

# A tibble: 177,577 × 14
   Diabetes_binary      HighBP HighChol   BMI Stroke HeartDiseaseorAttack
   <fct>                <fct>  <fct>    <dbl> <fct>  <fct>               
 1 Non_Diabetic         Yes    Yes         40 No     No                  
 2 Non_Diabetic         No     No          25 No     No                  
 3 Non_Diabetic         Yes    No          27 No     No                  
 4 Non_Diabetic         Yes    Yes         24 No     No                  
 5 Non_Diabetic         Yes    Yes         25 No     No                  
 6 Non_Diabetic         Yes    No          30 No     No                  
 7 Non_Diabetic         Yes    Yes         25 No     No                  
 8 Prediabetic_Diabetic Yes    Yes         30 No     Yes                 
 9 Prediabetic_Diabetic No     No          25 No     No                  
10 Non_Diabetic         Yes    Yes         34 No     No                  
# ℹ 177,567 more rows
# ℹ 8 more variables: PhysActivity <fct>, HvyAlcoholConsump <fct>,
#   GenHlth <ord>, MentHlth <dbl>, PhysHlth <dbl>, DiffWalk <fct>, Age <ord>,
#   Income <ord>

diabetesTest2

# A tibble: 76,103 × 14
   Diabetes_binary      HighBP HighChol   BMI Stroke HeartDiseaseorAttack
   <fct>                <fct>  <fct>    <dbl> <fct>  <fct>               
 1 Non_Diabetic         Yes    Yes         28 No     No                  
 2 Non_Diabetic         No     No          24 No     No                  
 3 Non_Diabetic         No     No          26 No     No                  
 4 Non_Diabetic         No     Yes         33 Yes    No                  
 5 Non_Diabetic         Yes    No          33 No     No                  
 6 Non_Diabetic         No     No          23 No     No                  
 7 Non_Diabetic         Yes    Yes         28 No     No                  
 8 Prediabetic_Diabetic Yes    Yes         37 Yes    Yes                 
 9 Prediabetic_Diabetic Yes    Yes         28 No     Yes                 
10 Non_Diabetic         Yes    No          26 No     No                  
# ℹ 76,093 more rows
# ℹ 8 more variables: PhysActivity <fct>, HvyAlcoholConsump <fct>,
#   GenHlth <ord>, MentHlth <dbl>, PhysHlth <dbl>, DiffWalk <fct>, Age <ord>,
#   Income <ord>

Model 3

Similar to what was done for model 2, the training and test sets for model 3 can be obtained by removing columns from model 2 training and test sets.

diabetesTrain3 <- diabetesTrain2 |>
  select(-Stroke,-MentHlth, -PhysHlth, -HvyAlcoholConsump, -DiffWalk)
diabetesTest3 <- diabetesTest2 |>
  select(-Stroke,-MentHlth, -PhysHlth, -HvyAlcoholConsump, -DiffWalk)
diabetesTrain3

# A tibble: 177,577 × 9
   Diabetes_binary      HighBP HighChol   BMI HeartDiseaseorAttack PhysActivity
   <fct>                <fct>  <fct>    <dbl> <fct>                <fct>       
 1 Non_Diabetic         Yes    Yes         40 No                   No          
 2 Non_Diabetic         No     No          25 No                   Yes         
 3 Non_Diabetic         Yes    No          27 No                   Yes         
 4 Non_Diabetic         Yes    Yes         24 No                   Yes         
 5 Non_Diabetic         Yes    Yes         25 No                   Yes         
 6 Non_Diabetic         Yes    No          30 No                   No          
 7 Non_Diabetic         Yes    Yes         25 No                   Yes         
 8 Prediabetic_Diabetic Yes    Yes         30 Yes                  No          
 9 Prediabetic_Diabetic No     No          25 No                   Yes         
10 Non_Diabetic         Yes    Yes         34 No                   No          
# ℹ 177,567 more rows
# ℹ 3 more variables: GenHlth <ord>, Age <ord>, Income <ord>

diabetesTest3

# A tibble: 76,103 × 9
   Diabetes_binary      HighBP HighChol   BMI HeartDiseaseorAttack PhysActivity
   <fct>                <fct>  <fct>    <dbl> <fct>                <fct>       
 1 Non_Diabetic         Yes    Yes         28 No                   No          
 2 Non_Diabetic         No     No          24 No                   No          
 3 Non_Diabetic         No     No          26 No                   No          
 4 Non_Diabetic         No     Yes         33 No                   Yes         
 5 Non_Diabetic         Yes    No          33 No                   Yes         
 6 Non_Diabetic         No     No          23 No                   No          
 7 Non_Diabetic         Yes    Yes         28 No                   No          
 8 Prediabetic_Diabetic Yes    Yes         37 Yes                  No          
 9 Prediabetic_Diabetic Yes    Yes         28 Yes                  No          
10 Non_Diabetic         Yes    No          26 No                   Yes         
# ℹ 76,093 more rows
# ℹ 3 more variables: GenHlth <ord>, Age <ord>, Income <ord>
…
