Exploratory Data Analysis of the Diabetes Health Indicators Set
…
The Behavioral Risk Factor Surveillance System (BRFSS) is a system run by the Centers for Disease Control and Prevention (CDC) that uses telephone surveys to collect health-related information from individuals in the United States every year. The system began in 1984 and collects more than 400,000 responses each year. The Diabetes Health Indicators Dataset that will be discussed here is a subset of the data obtained from the BRFSS for 2015. This data set contains 21 of the original 330 variables and 253.680 of the 441,455 original responses. Retention of the 21 variables in this data was based on what was believed to have potential relevance for diabetes.

The goal of this document is to use exploratory data analysis (EDA) to understand the data through validation, examining missingness, cleaning up the data and investigating distributions. This information can also help us decide what variables to include in our model. The end goal of this project is to obtain the best model to predict diabetes. Details of the EDA are presented below. The response variable is Diabetes_binary, where 0 indicates that the individual does not have diabetes and 1 means the individual has prediabetes or diabetes. The variables chosen to be included in the modeling process are ……. body mass index (BMI)…..

EDA Analysis

The first step is to read in the data. Since the data is a csv file, this can be done using read_csv() from tidyverse.

library(tidyverse)
library(psych)
library(caret)
diabetes_data <- read_csv("diabetes_binary_health_indicators_BRFSS2015.csv")
diabetes_data

# A tibble: 253,680 × 22
   Diabetes_binary HighBP HighChol CholCheck   BMI Smoker Stroke
             <dbl>  <dbl>    <dbl>     <dbl> <dbl>  <dbl>  <dbl>
 1               0      1        1         1    40      1      0
 2               0      0        0         0    25      1      0
 3               0      1        1         1    28      0      0
 4               0      1        0         1    27      0      0
 5               0      1        1         1    24      0      0
 6               0      1        1         1    25      1      0
 7               0      1        0         1    30      1      0
 8               0      1        1         1    25      1      0
 9               1      1        1         1    30      1      0
10               0      0        0         1    24      0      0
# ℹ 253,670 more rows
# ℹ 15 more variables: HeartDiseaseorAttack <dbl>, PhysActivity <dbl>,
#   Fruits <dbl>, Veggies <dbl>, HvyAlcoholConsump <dbl>, AnyHealthcare <dbl>,
#   NoDocbcCost <dbl>, GenHlth <dbl>, MentHlth <dbl>, PhysHlth <dbl>,
#   DiffWalk <dbl>, Sex <dbl>, Age <dbl>, Education <dbl>, Income <dbl>
…
The distinct() function can be used to verify that there are no missing values in a form other than NA. Looking at the output below, we can see that there is nothing unusual. Most of the categories have 0’s and 1’s which generally correspond to no (0) and yes(1), with the exception of Fruits, Veggies and Sex. The categories with other numbers have various meanings depending on the category but the numbers are consistent with what is expected based on the kaggle website’s Diabetes Health Indicators Dataset Notebook.

unique_values <- diabetes_data |>
  distinct()
unique_values

# A tibble: 229,474 × 22
   Diabetes_binary HighBP HighChol CholCheck   BMI Smoker Stroke
             <dbl>  <dbl>    <dbl>     <dbl> <dbl>  <dbl>  <dbl>
 1               0      1        1         1    40      1      0
 2               0      0        0         0    25      1      0
 3               0      1        1         1    28      0      0
 4               0      1        0         1    27      0      0
 5               0      1        1         1    24      0      0
 6               0      1        1         1    25      1      0
 7               0      1        0         1    30      1      0
 8               0      1        1         1    25      1      0
 9               1      1        1         1    30      1      0
10               0      0        0         1    24      0      0
# ℹ 229,464 more rows
# ℹ 15 more variables: HeartDiseaseorAttack <dbl>, PhysActivity <dbl>,
#   Fruits <dbl>, Veggies <dbl>, HvyAlcoholConsump <dbl>, AnyHealthcare <dbl>,
#   NoDocbcCost <dbl>, GenHlth <dbl>, MentHlth <dbl>, PhysHlth <dbl>,
#   DiffWalk <dbl>, Sex <dbl>, Age <dbl>, Education <dbl>, Income <dbl>
…
         AnyHealthcare = factor(AnyHealthcare, levels = c(0, 1), labels = c("No", "Yes")),
         HvyAlcoholConsump = factor(HvyAlcoholConsump, levels = c(0, 1), labels = c("No", "Yes")),
         PhysActivity = factor(PhysActivity, levels = c(0, 1), labels = c("No", "Yes")),
         HeartDiseaseorAttack = factor(HeartDiseaseorAttack, levels = c(0, 1), labels = c("No", "Yes")),
         Stroke = factor(Stroke, levels = c(0, 1), labels = c("No", "Yes")),
         Smoker = factor(Smoker, levels = c(0, 1), labels = c("No", "Yes")),
         CholCheck = factor(CholCheck, levels = c(0, 1), labels = c("No", "Yes")),
         HighBP = factor(HighBP, levels = c(0, 1), labels = c("No", "Yes")),
         HighChol = factor(HighChol, levels = c(0, 1), labels = c("No", "Yes")),
         Fruits = factor(Fruits, levels = c(0, 1), labels = c("None", ">= 1/day")),
         Veggies = factor(Veggies, levels = c(0, 1), labels = c("None", ">= 1/day"))
         )
diabetes

# A tibble: 253,680 × 22
   Diabetes_binary HighBP HighChol CholCheck   BMI Smoker Stroke
   <fct>           <fct>  <fct>    <fct>     <dbl> <fct>  <fct> 
 1 0               Yes    Yes      Yes          40 Yes    No    
 2 0               No     No       No           25 Yes    No    
 3 0               Yes    Yes      Yes          28 No     No    
 4 0               Yes    No       Yes          27 No     No    
 5 0               Yes    Yes      Yes          24 No     No    
 6 0               Yes    Yes      Yes          25 Yes    No    
 7 0               Yes    No       Yes          30 Yes    No    
 8 0               Yes    Yes      Yes          25 Yes    No    
 9 1               Yes    Yes      Yes          30 Yes    No    
10 0               No     No       Yes          24 No     No    
# ℹ 253,670 more rows
# ℹ 15 more variables: HeartDiseaseorAttack <fct>, PhysActivity <fct>,
#   Fruits <fct>, Veggies <fct>, HvyAlcoholConsump <fct>, AnyHealthcare <fct>,
#   NoDocbcCost <fct>, GenHlth <dbl>, MentHlth <dbl>, PhysHlth <dbl>,
#   DiffWalk <fct>, Sex <fct>, Age <ord>, Education <ord>, Income <ord>
…
