Modeling of the Diabetes Health Indicators Set
…
         Smoker = as.factor(Smoker),
         CholCheck = as.factor(CholCheck),
         PhysActivity = as.factor(PhysActivity),
         HeartDiseaseorAttack = as.factor(HeartDiseaseorAttack),
         Stroke = as.factor(Stroke),
         HighBP = as.factor(HighBP),
         HighChol = as.factor(HighChol),
         Fruits = as.factor(Fruits),
         Veggies = as.factor(Veggies),
         GenHlth = factor(GenHlth, ordered = TRUE, levels = 
                            c("Excellent", "Very_Good", "Good", 
                               "Fair", "Poor")))
diabetes1

# A tibble: 253,680 × 22
   Diabetes_binary      HighBP HighChol CholCheck   BMI Smoker Stroke
   <fct>                <fct>  <fct>    <fct>     <dbl> <fct>  <fct> 
 1 Non_Diabetic         Yes    Yes      Yes          40 Yes    No    
 2 Non_Diabetic         No     No       No           25 Yes    No    
 3 Non_Diabetic         Yes    Yes      Yes          28 No     No    
 4 Non_Diabetic         Yes    No       Yes          27 No     No    
 5 Non_Diabetic         Yes    Yes      Yes          24 No     No    
 6 Non_Diabetic         Yes    Yes      Yes          25 Yes    No    
 7 Non_Diabetic         Yes    No       Yes          30 Yes    No    
 8 Non_Diabetic         Yes    Yes      Yes          25 Yes    No    
 9 Prediabetic_Diabetic Yes    Yes      Yes          30 Yes    No    
10 Non_Diabetic         No     No       Yes          24 No     No    
# ℹ 253,670 more rows
# ℹ 15 more variables: HeartDiseaseorAttack <fct>, PhysActivity <fct>,
#   Fruits <fct>, Veggies <fct>, HvyAlcoholConsump <fct>, AnyHealthcare <fct>,
#   NoDocbcCost <fct>, GenHlth <ord>, MentHlth <dbl>, PhysHlth <dbl>,
#   DiffWalk <fct>, Sex <fct>, Age <ord>, Education <ord>, Income <ord>
…
Data will be split 70/30 for training and testing. Since model 1 includes all variables, the imported data above will be used. The createPartition() function from caret is used as it tries to maintain the class distribution (for the Diabetes_binary response variable) for both sets.

#set seed for reproducibility
set.seed(100)
#Partition data
trainIndex <- createDataPartition(diabetes1$Diabetes_binary, 
                                  p = 0.7, 
                                  list = FALSE)
#Create training set
diabetesTrain1 <- diabetes1[trainIndex, ]
#Create test set
diabetesTest1 <- diabetes1[-trainIndex, ]
diabetesTrain1

# A tibble: 177,577 × 22
   Diabetes_binary      HighBP HighChol CholCheck   BMI Smoker Stroke
   <fct>                <fct>  <fct>    <fct>     <dbl> <fct>  <fct> 
 1 Non_Diabetic         Yes    Yes      Yes          40 Yes    No    
 2 Non_Diabetic         No     No       No           25 Yes    No    
 3 Non_Diabetic         Yes    No       Yes          27 No     No    
 4 Non_Diabetic         Yes    Yes      Yes          24 No     No    
 5 Non_Diabetic         Yes    Yes      Yes          25 Yes    No    
 6 Non_Diabetic         Yes    No       Yes          30 Yes    No    
 7 Non_Diabetic         Yes    Yes      Yes          25 Yes    No    
 8 Prediabetic_Diabetic Yes    Yes      Yes          30 Yes    No    
 9 Prediabetic_Diabetic No     No       Yes          25 Yes    No    
10 Non_Diabetic         Yes    Yes      Yes          34 Yes    No    
# ℹ 177,567 more rows
# ℹ 15 more variables: HeartDiseaseorAttack <fct>, PhysActivity <fct>,
#   Fruits <fct>, Veggies <fct>, HvyAlcoholConsump <fct>, AnyHealthcare <fct>,
#   NoDocbcCost <fct>, GenHlth <ord>, MentHlth <dbl>, PhysHlth <dbl>,
#   DiffWalk <fct>, Sex <fct>, Age <ord>, Education <ord>, Income <ord>

diabetesTest1

# A tibble: 76,103 × 22
   Diabetes_binary      HighBP HighChol CholCheck   BMI Smoker Stroke
   <fct>                <fct>  <fct>    <fct>     <dbl> <fct>  <fct> 
 1 Non_Diabetic         Yes    Yes      Yes          28 No     No    
 2 Non_Diabetic         No     No       Yes          24 No     No    
 3 Non_Diabetic         No     No       Yes          26 Yes    No    
 4 Non_Diabetic         No     Yes      Yes          33 Yes    Yes   
 5 Non_Diabetic         Yes    No       Yes          33 No     No    
 6 Non_Diabetic         No     No       No           23 No     No    
 7 Non_Diabetic         Yes    Yes      Yes          28 Yes    No    
 8 Prediabetic_Diabetic Yes    Yes      Yes          37 Yes    Yes   
 9 Prediabetic_Diabetic Yes    Yes      Yes          28 Yes    No    
10 Non_Diabetic         Yes    No       Yes          26 No     No    
# ℹ 76,093 more rows
# ℹ 15 more variables: HeartDiseaseorAttack <fct>, PhysActivity <fct>,
#   Fruits <fct>, Veggies <fct>, HvyAlcoholConsump <fct>, AnyHealthcare <fct>,
#   NoDocbcCost <fct>, GenHlth <ord>, MentHlth <dbl>, PhysHlth <dbl>,
#   DiffWalk <fct>, Sex <fct>, Age <ord>, Education <ord>, Income <ord>

Model 2

For model 2, we can use the training and test sets above for model 1 and remove the variables not used for this model.

diabetesTrain2 <- diabetesTrain1 |>
  select(-CholCheck,-Smoker, -Fruits, -Veggies, -AnyHealthcare, -NoDocbcCost,
         -Sex, -Education)
diabetesTest2 <- diabetesTest1 |>
  select(-CholCheck,-Smoker, -Fruits, -Veggies, -AnyHealthcare, -NoDocbcCost,
         -Sex, -Education)
diabetesTrain2

# A tibble: 177,577 × 14
   Diabetes_binary      HighBP HighChol   BMI Stroke HeartDiseaseorAttack
   <fct>                <fct>  <fct>    <dbl> <fct>  <fct>               
 1 Non_Diabetic         Yes    Yes         40 No     No                  
 2 Non_Diabetic         No     No          25 No     No                  
 3 Non_Diabetic         Yes    No          27 No     No                  
 4 Non_Diabetic         Yes    Yes         24 No     No                  
 5 Non_Diabetic         Yes    Yes         25 No     No                  
 6 Non_Diabetic         Yes    No          30 No     No                  
 7 Non_Diabetic         Yes    Yes         25 No     No                  
 8 Prediabetic_Diabetic Yes    Yes         30 No     Yes                 
 9 Prediabetic_Diabetic No     No          25 No     No                  
10 Non_Diabetic         Yes    Yes         34 No     No                  
# ℹ 177,567 more rows
# ℹ 8 more variables: PhysActivity <fct>, HvyAlcoholConsump <fct>,
#   GenHlth <ord>, MentHlth <dbl>, PhysHlth <dbl>, DiffWalk <fct>, Age <ord>,
#   Income <ord>

diabetesTest2

# A tibble: 76,103 × 14
   Diabetes_binary      HighBP HighChol   BMI Stroke HeartDiseaseorAttack
   <fct>                <fct>  <fct>    <dbl> <fct>  <fct>               
 1 Non_Diabetic         Yes    Yes         28 No     No                  
 2 Non_Diabetic         No     No          24 No     No                  
 3 Non_Diabetic         No     No          26 No     No                  
 4 Non_Diabetic         No     Yes         33 Yes    No                  
 5 Non_Diabetic         Yes    No          33 No     No                  
 6 Non_Diabetic         No     No          23 No     No                  
 7 Non_Diabetic         Yes    Yes         28 No     No                  
 8 Prediabetic_Diabetic Yes    Yes         37 Yes    Yes                 
 9 Prediabetic_Diabetic Yes    Yes         28 No     Yes                 
10 Non_Diabetic         Yes    No          26 No     No                  
# ℹ 76,093 more rows
# ℹ 8 more variables: PhysActivity <fct>, HvyAlcoholConsump <fct>,
#   GenHlth <ord>, MentHlth <dbl>, PhysHlth <dbl>, DiffWalk <fct>, Age <ord>,
#   Income <ord>

Model 3

Similar to what was done for model 2, the training and test sets for model 3 can be obtained by removing the appropriate columns from model 2’s training and test sets.

diabetesTrain3 <- diabetesTrain2 |>
  select(-Stroke,-MentHlth, -HvyAlcoholConsump, -DiffWalk, 
         -PhysActivity)
diabetesTest3 <- diabetesTest2 |>
  select(-Stroke,-MentHlth, -HvyAlcoholConsump, -DiffWalk, 
         -PhysActivity)
diabetesTrain3

# A tibble: 177,577 × 9
   Diabetes_binary   HighBP HighChol   BMI HeartDiseaseorAttack GenHlth PhysHlth
   <fct>             <fct>  <fct>    <dbl> <fct>                <ord>      <dbl>
 1 Non_Diabetic      Yes    Yes         40 No                   Poor          15
 2 Non_Diabetic      No     No          25 No                   Good           0
 3 Non_Diabetic      Yes    No          27 No                   Very_G…        0
 4 Non_Diabetic      Yes    Yes         24 No                   Very_G…        0
 5 Non_Diabetic      Yes    Yes         25 No                   Very_G…        2
 6 Non_Diabetic      Yes    No          30 No                   Good          14
 7 Non_Diabetic      Yes    Yes         25 No                   Good           0
 8 Prediabetic_Diab… Yes    Yes         30 Yes                  Poor          30
 9 Prediabetic_Diab… No     No          25 No                   Good           0
10 Non_Diabetic      Yes    Yes         34 No                   Good          30
# ℹ 177,567 more rows
# ℹ 2 more variables: Age <ord>, Income <ord>

diabetesTest3

# A tibble: 76,103 × 9
   Diabetes_binary   HighBP HighChol   BMI HeartDiseaseorAttack GenHlth PhysHlth
   <fct>             <fct>  <fct>    <dbl> <fct>                <ord>      <dbl>
 1 Non_Diabetic      Yes    Yes         28 No                   Poor          30
 2 Non_Diabetic      No     No          24 No                   Very_G…        0
 3 Non_Diabetic      No     No          26 No                   Good          15
 4 Non_Diabetic      No     Yes         33 No                   Fair          28
 5 Non_Diabetic      Yes    No          33 No                   Very_G…        0
 6 Non_Diabetic      No     No          23 No                   Very_G…        0
 7 Non_Diabetic      Yes    Yes         28 No                   Good           0
 8 Prediabetic_Diab… Yes    Yes         37 Yes                  Poor           0
 9 Prediabetic_Diab… Yes    Yes         28 Yes                  Fair           0
10 Non_Diabetic      Yes    No          26 No                   Very_G…        0
# ℹ 76,093 more rows
# ℹ 2 more variables: Age <ord>, Income <ord>
…
Logistic Regression Model 1

A table of predicted values for the best logistic regression model is below. The actual classes from the test data were added using bind_cols() for purposes of comparison.

#obtain predictions using test data
pred_logReg <- predict(logRegFit_M1, newdata = diabetesTest1, type = "prob")
#extract response column Diabetes_binary from test data
Actual <- diabetesTest1$Diabetes_binary
#combine predicted probabilities with actual class labels
pred_logReg_actual_table <- bind_cols(pred_logReg, Actual = Actual)
pred_logReg_actual_table <- as_tibble(pred_logReg_actual_table)
pred_logReg_actual_table

# A tibble: 76,103 × 3
   Non_Diabetic Prediabetic_Diabetic Actual              
          <dbl>                <dbl> <fct>               
 1        0.658              0.342   Non_Diabetic        
 2        0.952              0.0482  Non_Diabetic        
 3        0.944              0.0562  Non_Diabetic        
 4        0.870              0.130   Non_Diabetic        
 5        0.939              0.0613  Non_Diabetic        
 6        0.998              0.00177 Non_Diabetic        
 7        0.729              0.271   Non_Diabetic        
 8        0.260              0.740   Prediabetic_Diabetic
 9        0.418              0.582   Prediabetic_Diabetic
10        0.910              0.0898  Non_Diabetic        
# ℹ 76,093 more rows
…
       'Positive' Class : Prediabetic_Diabetic

Classification Tree Model 1

A table of predicted values for classification tree Model is below.

pred_tree1 <- predict(treeFit_M1, newdata = diabetesTest1, type = "prob")
#combine predicted probabilitie with actual class labels
pred_tree_actual_table1 <- bind_cols(pred_tree1, Actual = Actual)
pred_tree_actual_table1 <- as_tibble(pred_tree_actual_table1)
pred_tree_actual_table1

# A tibble: 76,103 × 3
   Non_Diabetic Prediabetic_Diabetic Actual              
          <dbl>                <dbl> <fct>               
 1        0.681               0.319  Non_Diabetic        
 2        0.940               0.0602 Non_Diabetic        
 3        0.940               0.0602 Non_Diabetic        
 4        0.940               0.0602 Non_Diabetic        
 5        0.813               0.187  Non_Diabetic        
 6        0.940               0.0602 Non_Diabetic        
 7        0.813               0.187  Non_Diabetic        
 8        0.396               0.604  Prediabetic_Diabetic
 9        0.681               0.319  Prediabetic_Diabetic
10        0.813               0.187  Non_Diabetic        
# ℹ 76,093 more rows
…
       'Positive' Class : Prediabetic_Diabetic

Classification Tree Model 2

Now we can examine Model 2 for the classification tree. The table of predictions is presented below.

#obtain predictions using test data
pred_tree2 <- predict(treeFit_M2, newdata = diabetesTest2, type = "prob")
#combine predicted probabilitie with actual class labels
pred_tree_actual_table2 <- bind_cols(pred_tree2, Actual = Actual)
pred_tree_actual_table2 <- as_tibble(pred_tree_actual_table2)
pred_tree_actual_table2

# A tibble: 76,103 × 3
   Non_Diabetic Prediabetic_Diabetic Actual              
          <dbl>                <dbl> <fct>               
 1        0.681               0.319  Non_Diabetic        
 2        0.940               0.0602 Non_Diabetic        
 3        0.940               0.0602 Non_Diabetic        
 4        0.940               0.0602 Non_Diabetic        
 5        0.813               0.187  Non_Diabetic        
 6        0.940               0.0602 Non_Diabetic        
 7        0.813               0.187  Non_Diabetic        
 8        0.396               0.604  Prediabetic_Diabetic
 9        0.681               0.319  Prediabetic_Diabetic
10        0.813               0.187  Non_Diabetic        
# ℹ 76,093 more rows
…
       'Positive' Class : Prediabetic_Diabetic

Classification Tree Model 3

A table of predicted values for classification tree Model 3 is below.

#obtain predictions using test data
pred_tree3 <- predict(treeFit_M3, newdata = diabetesTest3, type = "prob")
#combine predicted probabilities with actual class labels
pred_tree_actual_table3 <- bind_cols(pred_tree3, Actual = Actual)
pred_tree_actual_table3 <- as_tibble(pred_tree_actual_table3)
pred_tree_actual_table3

# A tibble: 76,103 × 3
   Non_Diabetic Prediabetic_Diabetic Actual              
          <dbl>                <dbl> <fct>               
 1        0.681               0.319  Non_Diabetic        
 2        0.940               0.0602 Non_Diabetic        
 3        0.940               0.0602 Non_Diabetic        
 4        0.940               0.0602 Non_Diabetic        
 5        0.813               0.187  Non_Diabetic        
 6        0.940               0.0602 Non_Diabetic        
 7        0.813               0.187  Non_Diabetic        
 8        0.396               0.604  Prediabetic_Diabetic
 9        0.681               0.319  Prediabetic_Diabetic
10        0.813               0.187  Non_Diabetic        
# ℹ 76,093 more rows
…
The 3 classification tree models produced the same output. If a choice was to be made among the the three models, the most parsimonious model, Model 3 with 8 predictor variables, could be chosen.

Random Forest Model 1

Recall that the best random forest model was model 1 using “ranger”. A table of predicted values is presented below.

#obtain predictions using test data
pred_ranger <- predict(rfFit_ranger_M1, newdata = diabetesTest1, type = "prob")

#combine predicted probabilitie with actual class labels
pred_ranger_actual_table <- bind_cols(pred_ranger, Actual = Actual)
pred_ranger_actual_table <- as_tibble(pred_ranger_actual_table)
pred_ranger_actual_table

# A tibble: 76,103 × 3
   Non_Diabetic Prediabetic_Diabetic Actual              
          <dbl>                <dbl> <fct>               
 1        0.584               0.416  Non_Diabetic        
 2        0.962               0.0376 Non_Diabetic        
 3        0.921               0.0789 Non_Diabetic        
 4        0.785               0.215  Non_Diabetic        
 5        0.936               0.0642 Non_Diabetic        
 6        0.989               0.0106 Non_Diabetic        
 7        0.709               0.291  Non_Diabetic        
 8        0.356               0.644  Prediabetic_Diabetic
 9        0.599               0.401  Prediabetic_Diabetic
10        0.914               0.0857 Non_Diabetic        
# ℹ 76,093 more rows
…
       'Positive' Class : Prediabetic_Diabetic

Simply for comparison purposes, the best random forest model using the “rf” method will be presented here as well. A table of predicted values for model 1 using “rf” is below.

#obtain predictions using test data
pred_rf <- predict(rfFit_M1, newdata = diabetesTest1, type = "prob")

#combine predicted probabilitie with actual class labels
pred_rf_actual_table <- bind_cols(pred_rf, Actual = Actual)
pred_rf_actual_table <- as_tibble(pred_rf_actual_table)
pred_rf_actual_table

# A tibble: 76,103 × 3
   Non_Diabetic Prediabetic_Diabetic Actual              
          <dbl>                <dbl> <fct>               
 1        0.63                 0.37  Non_Diabetic        
 2        0.995                0.005 Non_Diabetic        
 3        0.985                0.015 Non_Diabetic        
 4        0.73                 0.27  Non_Diabetic        
 5        0.96                 0.04  Non_Diabetic        
 6        0.975                0.025 Non_Diabetic        
 7        0.715                0.285 Non_Diabetic        
 8        0.225                0.775 Prediabetic_Diabetic
 9        0.48                 0.52  Prediabetic_Diabetic
10        0.96                 0.04  Non_Diabetic        
# ℹ 76,093 more rows
…
